{
    "_meta": {
        "status": "SUCCESS",
        "count": 2
    },
    "records": {
        "data": [
                 {
                 "question": {
                 "id": "154",
                 "user_id": "2",
                 "question_parent_id": "0",
                 "question_type_id": "1",
                 "package_type_id": "4",
                 "difficulty_level_id": "1",
                 "learning_skills_id": "4",
                 "name": "lll",
                 "question_text": "lll",
                 "correct_answer_feedback": "",
                 "wrong_answer_feedback": "",
                 "general_feedback": "",
                 "points": "1.00",
                 "image_url": null,
                 "is_public": "0",
                 "is_deleted": "0",
                 "date_created": "2016-01-19 07:45:18",
                 "date_modified": "2016-01-19 07:45:18",
                 "questionTypeName": "True or False",
                 "learningSkillsName": "Analysis/Synthesis/Evaluation",
                 "difficultyLevelName": "Easy",
                 "question_images": [
                                     {
                                     "index": "1",
                                     "image": ""
                                     },
                                     {
                                     "index": "2",
                                     "image": ""
                                     },
                                     {
                                     "index": "3",
                                     "image": ""
                                     },
                                     {
                                     "index": "4",
                                     "image": ""
                                     }
                                     ],
                 "tags": []
                 },
                 "choices": [
                             {
                             "id": "379",
                             "question_id": "154",
                             "text": "True",
                             "suggestive_feedback": "",
                             "is_correct": "100",
                             "order_number": "1",
                             "question_choice_images": [],
                             "is_deleted": "0",
                             "date_created": "2016-01-19 07:45:18",
                             "date_modified": "2016-01-19 07:45:18"
                             },
                             {
                             "id": "380",
                             "question_id": "154",
                             "text": "False",
                             "suggestive_feedback": "",
                             "is_correct": "0",
                             "order_number": "2",
                             "question_choice_images": [],
                             "is_deleted": "0",
                             "date_created": "2016-01-19 07:45:18",
                             "date_modified": "2016-01-19 07:45:18"
                             }
                             ],
                 "subs": []
                 },
                 {
                 "question": {
                 "id": "153",
                 "user_id": "2",
                 "question_parent_id": "0",
                 "question_type_id": "3",
                 "package_type_id": "4",
                 "difficulty_level_id": "1",
                 "learning_skills_id": "4",
                 "name": "kk",
                 "question_text": "kk",
                 "correct_answer_feedback": "",
                 "wrong_answer_feedback": "",
                 "general_feedback": "",
                 "points": "1.00",
                 "image_url": null,
                 "is_public": "0",
                 "is_deleted": "0",
                 "date_created": "2016-01-19 07:30:10",
                 "date_modified": "2016-01-19 07:30:10",
                 "questionTypeName": "Multiple Choice",
                 "learningSkillsName": "Analysis/Synthesis/Evaluation",
                 "difficultyLevelName": "Easy",
                 "question_images": [
                                     {
                                     "index": "1",
                                     "image": ""
                                     },
                                     {
                                     "index": "2",
                                     "image": ""
                                     },
                                     {
                                     "index": "3",
                                     "image": ""
                                     },
                                     {
                                     "index": "4",
                                     "image": ""
                                     }
                                     ],
                 "tags": []
                 },
                 "choices": [
                             {
                             "id": "377",
                             "question_id": "153",
                             "text": "kk1",
                             "suggestive_feedback": "",
                             "is_correct": "100",
                             "order_number": "1",
                             "question_choice_images": [],
                             "is_deleted": "0",
                             "date_created": "2016-01-19 07:30:10",
                             "date_modified": "2016-01-19 07:30:10"
                             },
                             {
                             "id": "378",
                             "question_id": "153",
                             "text": "kk2",
                             "suggestive_feedback": "",
                             "is_correct": "0",
                             "order_number": "2",
                             "question_choice_images": [
                                                        "64bb37cb7da373f0f3de6a6229517697.jpg"
                                                        ],
                             "is_deleted": "0",
                             "date_created": "2016-01-19 07:30:10",
                             "date_modified": "2016-01-19 07:30:10"
                             }
                             ],
                 "subs": []
                 },
                 {
                 "question": {
                 "id": "151",
                 "user_id": "2",
                 "question_parent_id": "0",
                 "question_type_id": "3",
                 "package_type_id": "4",
                 "difficulty_level_id": "1",
                 "learning_skills_id": "1",
                 "name": "Chemistry Question",
                 "question_text": "testing",
                 "correct_answer_feedback": "",
                 "wrong_answer_feedback": "",
                 "general_feedback": "",
                 "points": "1.00",
                 "image_url": null,
                 "is_public": "1",
                 "is_deleted": "0",
                 "date_created": "2016-01-14 05:49:25",
                 "date_modified": "2016-01-18 11:59:39",
                 "questionTypeName": "Multiple Choice",
                 "learningSkillsName": "Knowledge",
                 "difficultyLevelName": "Easy",
                 "question_images": [
                                     {
                                     "index": "1",
                                     "image": ""
                                     },
                                     {
                                     "index": "2",
                                     "image": ""
                                     },
                                     {
                                     "index": "3",
                                     "image": ""
                                     },
                                     {
                                     "index": "4",
                                     "image": ""
                                     }
                                     ],
                 "tags": [
                          "sample",
                          "testing"
                          ]
                 },
                 "choices": [
                             {
                             "id": "372",
                             "question_id": "151",
                             "text": "B. Oxygen",
                             "suggestive_feedback": "",
                             "is_correct": "0",
                             "order_number": "2",
                             "question_choice_images": [],
                             "is_deleted": "0",
                             "date_created": "2016-01-18 11:59:39",
                             "date_modified": "2016-01-18 11:59:39"
                             },
                             {
                             "id": "373",
                             "question_id": "151",
                             "text": "C. Nitrogen",
                             "suggestive_feedback": "",
                             "is_correct": "100",
                             "order_number": "3",
                             "question_choice_images": [],
                             "is_deleted": "0",
                             "date_created": "2016-01-18 11:59:39",
                             "date_modified": "2016-01-18 11:59:39"
                             },
                             {
                             "id": "374",
                             "question_id": "151",
                             "text": "A. Hydrogen",
                             "suggestive_feedback": "",
                             "is_correct": "0",
                             "order_number": "1",
                             "question_choice_images": [],
                             "is_deleted": "0",
                             "date_created": "2016-01-18 11:59:39",
                             "date_modified": "2016-01-18 11:59:39"
                             }
                             ],
                 "subs": []
                 },
                 {
                 "question": {
                 "id": "150",
                 "user_id": "2",
                 "question_parent_id": "0",
                 "question_type_id": "3",
                 "package_type_id": "4",
                 "difficulty_level_id": "1",
                 "learning_skills_id": "1",
                 "name": "testing with images",
                 "question_text": "testing with images",
                 "correct_answer_feedback": "",
                 "wrong_answer_feedback": "",
                 "general_feedback": "",
                 "points": "1.00",
                 "image_url": null,
                 "is_public": "1",
                 "is_deleted": "0",
                 "date_created": "2016-01-14 03:31:22",
                 "date_modified": "2016-01-14 03:31:22",
                 "questionTypeName": "Multiple Choice",
                 "learningSkillsName": "Knowledge",
                 "difficultyLevelName": "Easy",
                 "question_images": [
                                     {
                                     "index": "1",
                                     "image": ""
                                     },
                                     {
                                     "index": "2",
                                     "image": ""
                                     },
                                     {
                                     "index": "3",
                                     "image": ""
                                     },
                                     {
                                     "index": "4",
                                     "image": ""
                                     }
                                     ],
                 "tags": [
                          "sample",
                          "testing"
                          ]
                 },
                 "choices": [
                             {
                             "id": "339",
                             "question_id": "150",
                             "text": "a",
                             "suggestive_feedback": null,
                             "is_correct": "0",
                             "order_number": "1",
                             "question_choice_images": [
                                                        "d0f9cce5819de15ae661a0d09e3f7ba8.jpg"
                                                        ],
                             "is_deleted": "0",
                             "date_created": "2016-01-14 03:31:22",
                             "date_modified": "2016-01-14 03:31:22"
                             },
                             {
                             "id": "340",
                             "question_id": "150",
                             "text": "b",
                             "suggestive_feedback": null,
                             "is_correct": "0",
                             "order_number": "2",
                             "question_choice_images": [
                                                        "d0f9cce5819de15ae661a0d09e3f7ba8.jpg"
                                                        ],
                             "is_deleted": "0",
                             "date_created": "2016-01-14 03:31:22",
                             "date_modified": "2016-01-14 03:31:22"
                             },
                             {
                             "id": "341",
                             "question_id": "150",
                             "text": "c",
                             "suggestive_feedback": null,
                             "is_correct": "100",
                             "order_number": "3",
                             "question_choice_images": [
                                                        "d0f9cce5819de15ae661a0d09e3f7ba8.jpg"
                                                        ],
                             "is_deleted": "0",
                             "date_created": "2016-01-14 03:31:22",
                             "date_modified": "2016-01-14 03:31:22"
                             }
                             ],
                 "subs": []
                 },
                 {
                 "question": {
                 "id": "149",
                 "user_id": "2",
                 "question_parent_id": "0",
                 "question_type_id": "1",
                 "package_type_id": "4",
                 "difficulty_level_id": "1",
                 "learning_skills_id": "4",
                 "name": "killi",
                 "question_text": "killi",
                 "correct_answer_feedback": "",
                 "wrong_answer_feedback": "",
                 "general_feedback": "",
                 "points": "1.00",
                 "image_url": null,
                 "is_public": "0",
                 "is_deleted": "0",
                 "date_created": "2016-01-14 03:26:55",
                 "date_modified": "2016-01-14 03:26:55",
                 "questionTypeName": "True or False",
                 "learningSkillsName": "Analysis/Synthesis/Evaluation",
                 "difficultyLevelName": "Easy",
                 "question_images": [
                                     {
                                     "index": "1",
                                     "image": ""
                                     },
                                     {
                                     "index": "2",
                                     "image": ""
                                     },
                                     {
                                     "index": "3",
                                     "image": ""
                                     },
                                     {
                                     "index": "4",
                                     "image": ""
                                     }
                                     ],
                 "tags": []
                 },
                 "choices": [
                             {
                             "id": "337",
                             "question_id": "149",
                             "text": "True",
                             "suggestive_feedback": "",
                             "is_correct": "100",
                             "order_number": "1",
                             "question_choice_images": [],
                             "is_deleted": "0",
                             "date_created": "2016-01-14 03:26:55",
                             "date_modified": "2016-01-14 03:26:55"
                             },
                             {
                             "id": "338",
                             "question_id": "149",
                             "text": "False",
                             "suggestive_feedback": "",
                             "is_correct": "0",
                             "order_number": "2",
                             "question_choice_images": [],
                             "is_deleted": "0",
                             "date_created": "2016-01-14 03:26:55",
                             "date_modified": "2016-01-14 03:26:55"
                             }
                             ],
                 "subs": []
                 },
                 {
                 "question": {
                 "id": "148",
                 "user_id": "2",
                 "question_parent_id": "0",
                 "question_type_id": "1",
                 "package_type_id": "4",
                 "difficulty_level_id": "1",
                 "learning_skills_id": "4",
                 "name": "yh",
                 "question_text": "hny",
                 "correct_answer_feedback": "",
                 "wrong_answer_feedback": "",
                 "general_feedback": "",
                 "points": "1.00",
                 "image_url": null,
                 "is_public": "0",
                 "is_deleted": "0",
                 "date_created": "2016-01-14 01:29:23",
                 "date_modified": "2016-01-14 01:29:23",
                 "questionTypeName": "True or False",
                 "learningSkillsName": "Analysis/Synthesis/Evaluation",
                 "difficultyLevelName": "Easy",
                 "question_images": [
                                     {
                                     "index": "1",
                                     "image": ""
                                     },
                                     {
                                     "index": "2",
                                     "image": ""
                                     },
                                     {
                                     "index": "3",
                                     "image": ""
                                     },
                                     {
                                     "index": "4",
                                     "image": ""
                                     }
                                     ],
                 "tags": []
                 },
                 "choices": [
                             {
                             "id": "335",
                             "question_id": "148",
                             "text": "True",
                             "suggestive_feedback": "",
                             "is_correct": "100",
                             "order_number": "1",
                             "question_choice_images": [],
                             "is_deleted": "0",
                             "date_created": "2016-01-14 01:29:23",
                             "date_modified": "2016-01-14 01:29:23"
                             },
                             {
                             "id": "336",
                             "question_id": "148",
                             "text": "False",
                             "suggestive_feedback": "",
                             "is_correct": "0",
                             "order_number": "2",
                             "question_choice_images": [],
                             "is_deleted": "0",
                             "date_created": "2016-01-14 01:29:23",
                             "date_modified": "2016-01-14 01:29:23"
                             }
                             ],
                 "subs": []
                 },
                 {
                 "question": {
                 "id": "147",
                 "user_id": "2",
                 "question_parent_id": "0",
                 "question_type_id": "1",
                 "package_type_id": "4",
                 "difficulty_level_id": "3",
                 "learning_skills_id": "3",
                 "name": "nt",
                 "question_text": "nq",
                 "correct_answer_feedback": "",
                 "wrong_answer_feedback": "",
                 "general_feedback": "",
                 "points": "1.00",
                 "image_url": null,
                 "is_public": "1",
                 "is_deleted": "0",
                 "date_created": "2016-01-13 09:58:10",
                 "date_modified": "2016-01-13 09:58:10",
                 "questionTypeName": "True or False",
                 "learningSkillsName": "Comprehension",
                 "difficultyLevelName": "Difficult",
                 "question_images": [
                                     {
                                     "index": "1",
                                     "image": ""
                                     },
                                     {
                                     "index": "2",
                                     "image": ""
                                     },
                                     {
                                     "index": "3",
                                     "image": ""
                                     },
                                     {
                                     "index": "4",
                                     "image": ""
                                     }
                                     ],
                 "tags": []
                 },
                 "choices": [
                             {
                             "id": "333",
                             "question_id": "147",
                             "text": "True",
                             "suggestive_feedback": "",
                             "is_correct": "100",
                             "order_number": "1",
                             "question_choice_images": [],
                             "is_deleted": "0",
                             "date_created": "2016-01-13 09:58:10",
                             "date_modified": "2016-01-13 09:58:10"
                             },
                             {
                             "id": "334",
                             "question_id": "147",
                             "text": "False",
                             "suggestive_feedback": "",
                             "is_correct": "0",
                             "order_number": "2",
                             "question_choice_images": [],
                             "is_deleted": "0",
                             "date_created": "2016-01-13 09:58:10",
                             "date_modified": "2016-01-13 09:58:10"
                             }
                             ],
                 "subs": []
                 },
                 {
                 "question": {
                 "id": "146",
                 "user_id": "2",
                 "question_parent_id": "0",
                 "question_type_id": "3",
                 "package_type_id": "4",
                 "difficulty_level_id": "1",
                 "learning_skills_id": "1",
                 "name": "Zoology Topic 1",
                 "question_text": "The largest living animals belong to the group of",
                 "correct_answer_feedback": "Tama!",
                 "wrong_answer_feedback": "Mali!",
                 "general_feedback": "Heneral!",
                 "points": "1.00",
                 "image_url": null,
                 "is_public": "1",
                 "is_deleted": "0",
                 "date_created": "2016-01-13 09:24:03",
                 "date_modified": "2016-01-13 09:24:03",
                 "questionTypeName": "Multiple Choice",
                 "learningSkillsName": "Knowledge",
                 "difficultyLevelName": "Easy",
                 "question_images": [
                                     {
                                     "index": "1",
                                     "image": ""
                                     },
                                     {
                                     "index": "2",
                                     "image": ""
                                     },
                                     {
                                     "index": "3",
                                     "image": ""
                                     },
                                     {
                                     "index": "4",
                                     "image": ""
                                     }
                                     ],
                 "tags": [
                          "one",
                          "three",
                          "two"
                          ]
                 },
                 "choices": [
                             {
                             "id": "329",
                             "question_id": "146",
                             "text": "A. Fish",
                             "suggestive_feedback": null,
                             "is_correct": "0",
                             "order_number": "1",
                             "question_choice_images": [],
                             "is_deleted": "0",
                             "date_created": "2016-01-13 09:24:03",
                             "date_modified": "2016-01-13 09:24:03"
                             },
                             {
                             "id": "330",
                             "question_id": "146",
                             "text": "B. Birds",
                             "suggestive_feedback": null,
                             "is_correct": "0",
                             "order_number": "2",
                             "question_choice_images": [],
                             "is_deleted": "0",
                             "date_created": "2016-01-13 09:24:03",
                             "date_modified": "2016-01-13 09:24:03"
                             },
                             {
                             "id": "331",
                             "question_id": "146",
                             "text": "C. Reptiles",
                             "suggestive_feedback": null,
                             "is_correct": "0",
                             "order_number": "3",
                             "question_choice_images": [],
                             "is_deleted": "0",
                             "date_created": "2016-01-13 09:24:03",
                             "date_modified": "2016-01-13 09:24:03"
                             },
                             {
                             "id": "332",
                             "question_id": "146",
                             "text": "D. Mammals",
                             "suggestive_feedback": null,
                             "is_correct": "100",
                             "order_number": "4",
                             "question_choice_images": [],
                             "is_deleted": "0",
                             "date_created": "2016-01-13 09:24:03",
                             "date_modified": "2016-01-13 09:24:03"
                             }
                             ],
                 "subs": []
                 },
                 {
                 "question": {
                 "id": "145",
                 "user_id": "2",
                 "question_parent_id": "0",
                 "question_type_id": "3",
                 "package_type_id": "4",
                 "difficulty_level_id": "2",
                 "learning_skills_id": "3",
                 "name": "Please enter a title",
                 "question_text": "Please enter a question",
                 "correct_answer_feedback": "",
                 "wrong_answer_feedback": "",
                 "general_feedback": "",
                 "points": "1.00",
                 "image_url": null,
                 "is_public": "1",
                 "is_deleted": "0",
                 "date_created": "2016-01-13 09:07:00",
                 "date_modified": "2016-01-13 09:07:00",
                 "questionTypeName": "Multiple Choice",
                 "learningSkillsName": "Comprehension",
                 "difficultyLevelName": "Moderate",
                 "question_images": [
                                     {
                                     "index": "1",
                                     "image": ""
                                     },
                                     {
                                     "index": "2",
                                     "image": ""
                                     },
                                     {
                                     "index": "3",
                                     "image": ""
                                     },
                                     {
                                     "index": "4",
                                     "image": ""
                                     }
                                     ],
                 "tags": [
                          "animal",
                          "hello world and kamusta munro",
                          "wilkins"
                          ]
                 },
                 "choices": [
                             {
                             "id": "326",
                             "question_id": "145",
                             "text": "C. mammal",
                             "suggestive_feedback": "",
                             "is_correct": "0",
                             "order_number": "2",
                             "question_choice_images": [],
                             "is_deleted": "0",
                             "date_created": "2016-01-13 09:07:00",
                             "date_modified": "2016-01-13 09:07:00"
                             },
                             {
                             "id": "327",
                             "question_id": "145",
                             "text": "A. fishe",
                             "suggestive_feedback": "",
                             "is_correct": "100",
                             "order_number": "0",
                             "question_choice_images": [],
                             "is_deleted": "0",
                             "date_created": "2016-01-13 09:07:00",
                             "date_modified": "2016-01-13 09:07:00"
                             },
                             {
                             "id": "328",
                             "question_id": "145",
                             "text": "B.birds",
                             "suggestive_feedback": "",
                             "is_correct": "0",
                             "order_number": "1",
                             "question_choice_images": [],
                             "is_deleted": "0",
                             "date_created": "2016-01-13 09:07:00",
                             "date_modified": "2016-01-13 09:07:00"
                             }
                             ],
                 "subs": []
                 },
                 {
                 "question": {
                 "id": "144",
                 "user_id": "2",
                 "question_parent_id": "0",
                 "question_type_id": "3",
                 "package_type_id": "4",
                 "difficulty_level_id": "1",
                 "learning_skills_id": "1",
                 "name": "Zoology Question 1",
                 "question_text": "What is a dog?",
                 "correct_answer_feedback": "",
                 "wrong_answer_feedback": "",
                 "general_feedback": "",
                 "points": "1.00",
                 "image_url": null,
                 "is_public": "1",
                 "is_deleted": "0",
                 "date_created": "2016-01-13 03:28:32",
                 "date_modified": "2016-01-13 03:28:32",
                 "questionTypeName": "Multiple Choice",
                 "learningSkillsName": "Knowledge",
                 "difficultyLevelName": "Easy",
                 "question_images": [
                                     {
                                     "index": "1",
                                     "image": ""
                                     },
                                     {
                                     "index": "2",
                                     "image": ""
                                     },
                                     {
                                     "index": "3",
                                     "image": ""
                                     },
                                     {
                                     "index": "4",
                                     "image": ""
                                     }
                                     ],
                 "tags": [
                          "forpagination",
                          "testquestion"
                          ]
                 },
                 "choices": [
                             {
                             "id": "325",
                             "question_id": "144",
                             "text": "Mammal",
                             "suggestive_feedback": null,
                             "is_correct": "0",
                             "order_number": "1",
                             "question_choice_images": [],
                             "is_deleted": "0",
                             "date_created": "2016-01-13 03:28:32",
                             "date_modified": "2016-01-13 03:28:32"
                             }
                             ],
                 "subs": []
                 }
                 ],
        "pagination": {
            "current_page": 1,
            "total_filtered": 111,
            "total_items": 111,
            "total_pages": 12
        }
    }
}